{
  "my_working_directory":"/afs/cern.ch/work/n/natriant/private/workspaces",
  "workspace_name":"",

  "mask_prefix":"SPS",
  "optics":26,
  "energy":26000,

  "Qxp":0.0,
  "Qyp":0.0,
  "dpp":0.0,
  "z_limits": {
    "min": 600.0,
    "max": 700.0,
    "step": 100.0
  },

  "status_type":"6D",
  
  "multipole_errors":{
    "status":"b3b5b7",
    "nominal_value":false,
    "values_limits":{
      "min":0.0,
      "max":200.0,
      "step":20.0
    },
    "random_flag":false,
    "random_limits":{
      "min":0.05,
      "max":1.0,
      "step":0.1
    }
  },


  "power_supply_ripples":{
    "status":false,
    "amplitude":"1D-3",
    "phase":"0.0",
    "freq_limits":{
      "min":896,
      "max":1000,
      "step":100
    }
  },

  "crab_cavities":{
    "Vmin":0.0,
    "Vmax":0.0,
    "step":1.0,
    "phase":0.0,
    "orientation":"V",
    "DYNK":300
  },

  "type_of_study":"da",
  "type_of_input":"sixdesk"
}
